{
  "name": "vdj_pipe-stampede",
  "version": "0.1.7",
  "helpURI": "http://vdjserver.org",
  "label": "vdj_pipe",
  "defaultQueue": "normal",
  "shortDescription": "Preprocessing pipeline for immune repertoire analysis",
  "longDescription": "Preprocessing pipeline for immune repertoire analysis",
  "executionType": "HPC",
  "executionSystem": "stampede.tacc.utexas.edu",
  "parallelism": "PARALLEL",
  "checkpointable": false,
  "deploymentPath": "/apps/vdj_pipe/0.1.7/stampede/",
  "deploymentSystem": "data.vdjserver.org",
  "templatePath": "vdj_pipe.sh",
  "testPath": "test/test.sh",
  "tags": [
    "vdj",
    "immune",
    "quality",
    "filter",
    "trim"
  ],
  "ontology": [
    "http://sswapmeet.sswap.info/agave/apps/Application"
  ],
  "modules": [
    "purge",
    "load TACC"
  ],
  "inputs": [
    {
      "id": "StudyMetadata",
      "details": {
        "label": "Study Metadata",
        "description": "",
        "showAttribute": false
      },
      "semantics": {
        "minCardinality": 1,
        "maxCardinality": 1,
        "ontology": [
          "http://sswapmeet.sswap.info/mime/application/Json"
        ],
        "fileTypes": [
          "text-0"
        ]
      },
      "value": {
        "default": "",
        "visible": true,
        "required": false
      }
    },
    {
      "id": "ProjectDirectory",
      "details": {
        "label": "Directory containing project files",
        "description": "",
        "showAttribute": false
      },
      "semantics": {
        "minCardinality": 1,
        "maxCardinality": 1,
        "ontology": [
          "http://sswapmeet.sswap.info/mime/application/Json"
        ],
        "fileTypes": [
          "text-0"
        ]
      },
      "value": {
        "default": "",
        "visible": true,
        "required": false
      }
    },
    {
      "id": "JobFiles",
      "details": {
        "label": "job output archive files",
        "description": "",
        "showAttribute": false
      },
      "semantics": {
        "minCardinality": 0,
        "maxCardinality": -1,
        "ontology": [
          "http://sswapmeet.sswap.info/mime/application/Json"
        ],
        "fileTypes": [
          "text-0"
        ]
      },
      "value": {
        "default": "",
        "visible": true,
        "required": false
      }
    },
    {
      "id": "SequenceFASTQ",
      "value": {
        "default": "",
        "visible": true,
        "required": false
      },
      "details": {
        "label": "Input sequencing data",
        "description": "Multiple files may be given"
      },
      "semantics": {
        "minCardinality": 0,
        "maxCardinality": -1,
        "ontology": [
          "http://sswapmeet.sswap.info/mime/text/X-multiFasta"
        ],
        "fileTypes": [
          "FASTQ-0"
        ]
      }
    },
    {
      "id": "SequenceFASTA",
      "value": {
        "default": "",
        "visible": true,
        "required": false
      },
      "details": {
        "label": "Input sequencing data",
        "description": "Multiple files may be given"
      },
      "semantics": {
        "minCardinality": 0,
        "maxCardinality": -1,
        "ontology": [
          "http://sswapmeet.sswap.info/mime/text/X-multiFasta"
        ],
        "fileTypes": [
          "FASTA-0"
        ]
      }
    },
    {
      "id": "SequenceQualityFiles",
      "value": {
        "default": "",
        "visible": true,
        "required": false
      },
      "details": {
        "label": "Input sequencing quality data",
        "description": "Multiple files may be given"
      },
      "semantics": {
        "minCardinality": 0,
        "maxCardinality": -1,
        "ontology": [
          "http://sswapmeet.sswap.info/mime/text/X-multiFasta"
        ],
        "fileTypes": [
          "FASTA-0"
        ]
      }
    },
    {
      "id": "SequenceForwardPairedFiles",
      "value": {
        "default": "",
        "visible": true,
        "required": false
      },
      "details": {
        "label": "Forward paired read files",
        "description": "Multiple files may be given"
      },
      "semantics": {
        "minCardinality": 1,
        "maxCardinality": -1,
        "ontology": [
          "http://sswapmeet.sswap.info/mime/text/X-multiFasta"
        ],
        "fileTypes": [
          "FASTQ-0"
        ]
      }
    },
    {
      "id": "SequenceReversePairedFiles",
      "value": {
        "default": "",
        "visible": true,
        "required": false
      },
      "details": {
        "label": "Forward paired read files",
        "description": "Multiple files may be given"
      },
      "semantics": {
        "minCardinality": 1,
        "maxCardinality": -1,
        "ontology": [
          "http://sswapmeet.sswap.info/mime/text/X-multiFasta"
        ],
        "fileTypes": [
          "FASTQ-0"
        ]
      }
    },
    {
      "id": "ForwardPrimerFile",
      "value": {
        "default": "",
        "visible": true,
        "required": false
      },
      "details": {
        "label": "File of primer sequences (V-region side)",
        "description": ""
      },
      "semantics": {
        "minCardinality": 0,
        "maxCardinality": 1,
        "ontology": [
          "http://sswapmeet.sswap.info/mime/text/X-multiFasta"
        ],
        "fileTypes": [
          "FASTA-0"
        ]
      }
    },
    {
      "id": "ReversePrimerFile",
      "value": {
        "default": "",
        "visible": true,
        "required": false
      },
      "details": {
        "label": "File of primer sequences (J-region side)",
        "description": ""
      },
      "semantics": {
        "minCardinality": 0,
        "maxCardinality": 1,
        "ontology": [
          "http://sswapmeet.sswap.info/mime/text/X-multiFasta"
        ],
        "fileTypes": [
          "FASTA-0"
        ]
      }
    },
    {
      "id": "BarcodeFile",
      "value": {
        "default": "",
        "visible": true,
        "required": false
      },
      "details": {
        "label": "File of barcode sequences",
        "description": ""
      },
      "semantics": {
        "minCardinality": 0,
        "maxCardinality": 1,
        "ontology": [
          "http://sswapmeet.sswap.info/mime/text/X-multiFasta"
        ],
        "fileTypes": [
          "FASTA-0"
        ]
      }
    }
  ],
  "parameters": [
    {
      "id": "Creator",
      "value": {
        "visible": true,
        "required": true,
        "type": "string",
        "default": ""
      },
      "details": {
        "label": "Creator",
        "description": "Username that created this job."
      },
      "semantics": {
        "minCardinality": 1,
        "maxCardinality": 1,
        "ontology": [
          "xsd:string"
        ]
      }
    },
    {
      "id": "Workflow",
      "details": {
        "label": "Workflow",
        "description": "Single read, paired reads or individual workflow.",
        "showAttribute": false
      },
      "semantics": {
        "ontology": [
          "xs:string"
        ]
      },
      "value": {
        "type": "enumeration",
        "enum_values": [
		       {"single": "Single"},
          	       {"paired": "Paired"},
          	       {"individual": "Individual"}
        ],
        "visible": true,
        "required": true
      }
    },
    {
      "id": "SecondaryInputsFlag",
      "value": {
        "visible": true,
        "required": false,
        "type": "bool",
        "order": 0,
        "enquote": false,
        "default": false,
        "validator": null
      },
      "details": {
        "label": "Secondary inputs",
        "description": "Specify if secondary inputs are specified in the study metadata file.",
        "argument": null,
        "showArgument": false,
        "repeatArgument": false
      },
      "semantics": {
        "minCardinality": 0,
        "maxCardinality": 1,
        "ontology": [
          "xsd:boolean"
        ]
      }
    },
    {
      "id": "SequenceFASTQMetadata",
      "value": {
        "type": "string",
        "validator": null,
        "visible": true,
        "required": false,
        "order": 0,
        "enquote": false,
        "default": [
          ""
        ]
      },
      "details": {
        "label": "Metadata UUID for Input sequencing data",
        "description": "Multiple files may be given",
        "argument": null,
        "showArgument": false,
        "repeatArgument": false
      },
      "semantics": {
        "minCardinality": 0,
        "maxCardinality": -1,
        "ontology": [
          "http://sswapmeet.sswap.info/mime/text/X-multiFasta"
        ],
        "fileTypes": [
          "FASTQ-0"
        ]
      }
    },
    {
      "id": "SequenceFASTAMetadata",
      "value": {
        "type": "string",
        "validator": null,
        "visible": true,
        "required": false,
        "order": 0,
        "enquote": false,
        "default": [
          ""
        ]
      },
      "details": {
        "label": "Metadata UUID for input sequencing data",
        "description": "Multiple files may be given",
        "argument": null,
        "showArgument": false,
        "repeatArgument": false
      },
      "semantics": {
        "minCardinality": 0,
        "maxCardinality": -1,
        "ontology": [
          "http://sswapmeet.sswap.info/mime/text/X-multiFasta"
        ],
        "fileTypes": [
          "FASTA-0"
        ]
      }
    },
    {
      "id": "SequenceQualityFilesMetadata",
      "value": {
        "type": "string",
        "validator": null,
        "visible": true,
        "required": false,
        "order": 0,
        "enquote": false,
        "default": [
          ""
        ]
      },
      "details": {
        "label": "Metadata UUID for input sequencing quality data",
        "description": "Multiple files may be given",
        "argument": null,
        "showArgument": false,
        "repeatArgument": false
      },
      "semantics": {
        "minCardinality": 0,
        "maxCardinality": -1,
        "ontology": [
          "http://sswapmeet.sswap.info/mime/text/X-multiFasta"
        ],
        "fileTypes": [
          "FASTA-0"
        ]
      }
    },
    {
      "id": "SequenceForwardPairedFilesMetadata",
      "value": {
        "type": "string",
        "validator": null,
        "visible": true,
        "required": false,
        "order": 0,
        "enquote": false,
        "default": [
          ""
        ]
      },
      "details": {
        "label": "Metadata UUID for forward paired read files",
        "description": "Multiple files may be given",
        "argument": null,
        "showArgument": false,
        "repeatArgument": false
      },
      "semantics": {
        "minCardinality": 1,
        "maxCardinality": -1,
        "ontology": [
          "http://sswapmeet.sswap.info/mime/text/X-multiFasta"
        ],
        "fileTypes": [
          "FASTQ-0"
        ]
      }
    },
    {
      "id": "SequenceReversePairedFilesMetadata",
      "value": {
        "type": "string",
        "validator": null,
        "visible": true,
        "required": false,
        "order": 0,
        "enquote": false,
        "default": [
          ""
        ]
      },
      "details": {
        "label": "Metadata UUID for reverse paired read files",
        "description": "Multiple files may be given",
        "argument": null,
        "showArgument": false,
        "repeatArgument": false
      },
      "semantics": {
        "minCardinality": 1,
        "maxCardinality": -1,
        "ontology": [
          "http://sswapmeet.sswap.info/mime/text/X-multiFasta"
        ],
        "fileTypes": [
          "FASTQ-0"
        ]
      }
    },
    {
      "id": "ForwardPrimerFileMetadata",
      "value": {
        "type": "string",
        "validator": null,
        "visible": true,
        "required": false,
        "order": 0,
        "enquote": false,
        "default": null
      },
      "details": {
        "label": "Metadata UUID for file of primer sequences (V-region side)",
        "description": "",
        "argument": null,
        "showArgument": false,
        "repeatArgument": false
      },
      "semantics": {
        "minCardinality": 0,
        "maxCardinality": 1,
        "ontology": [
          "http://sswapmeet.sswap.info/mime/text/X-multiFasta"
        ],
        "fileTypes": [
          "FASTA-0"
        ]
      }
    },
    {
      "id": "ReversePrimerFileMetadata",
      "value": {
        "type": "string",
        "validator": null,
        "visible": true,
        "required": false,
        "order": 0,
        "enquote": false,
        "default": null
      },
      "details": {
        "label": "Metadata UUID for file of primer sequences (J-region side)",
        "description": "",
        "argument": null,
        "showArgument": false,
        "repeatArgument": false
      },
      "semantics": {
        "minCardinality": 0,
        "maxCardinality": 1,
        "ontology": [
          "http://sswapmeet.sswap.info/mime/text/X-multiFasta"
        ],
        "fileTypes": [
          "FASTA-0"
        ]
      }
    },
    {
      "id": "BarcodeFileMetadata",
      "value": {
        "type": "string",
        "validator": null,
        "visible": true,
        "required": false,
        "order": 0,
        "enquote": false,
        "default": null
      },
      "details": {
        "label": "Metadata UUID for file of barcode sequences",
        "description": "",
        "argument": null,
        "showArgument": false,
        "repeatArgument": false
      },
      "semantics": {
        "minCardinality": 0,
        "maxCardinality": 1,
        "ontology": [
          "http://sswapmeet.sswap.info/mime/text/X-multiFasta"
        ],
        "fileTypes": [
          "FASTA-0"
        ]
      }
    },
    {
      "id": "MergeMinimumScore",
      "value": {
        "visible": true,
        "required": false,
        "type": "number",
        "order": 0,
        "enquote": false,
        "default": 0,
        "validator": null
      },
      "details": {
        "label": "Minimum score",
        "description": "Minimal score for merging reads.",
        "argument": null,
        "showArgument": false,
        "repeatArgument": false
      },
      "semantics": {
        "minCardinality": 0,
        "maxCardinality": 1,
        "ontology": [
          "xsd:integer"
        ]
      }
    },
    {
      "id": "PreFilterStatisticsFlag",
      "value": {
        "visible": true,
        "required": false,
        "type": "bool",
        "order": 0,
        "enquote": false,
        "default": false,
        "validator": null
      },
      "details": {
        "label": "Pre-filter statistics",
        "description": "Specify if pre-filter statistics are to be generated.",
        "argument": null,
        "showArgument": false,
        "repeatArgument": false
      },
      "semantics": {
        "minCardinality": 0,
        "maxCardinality": 1,
        "ontology": [
          "xsd:boolean"
        ]
      }
    },
    {
      "id": "FilterFlag",
      "value": {
        "visible": true,
        "required": false,
        "type": "bool",
        "order": 0,
        "enquote": false,
        "default": false,
        "validator": null
      },
      "details": {
        "label": "Quality and length filtering",
        "description": "Specify if quality and length filtering is to be performed.",
        "argument": null,
        "showArgument": false,
        "repeatArgument": false
      },
      "semantics": {
        "minCardinality": 0,
        "maxCardinality": 1,
        "ontology": [
          "xsd:boolean"
        ]
      }
    },
    {
      "id": "MinimumAverageQuality",
      "value": {
        "visible": true,
        "required": false,
        "type": "number",
        "order": 0,
        "enquote": false,
        "default": 0,
        "validator": null
      },
      "details": {
        "label": "Minimum average quality",
        "description": "Minimal average quality for filtering reads.",
        "argument": null,
        "showArgument": false,
        "repeatArgument": false
      },
      "semantics": {
        "minCardinality": 0,
        "maxCardinality": 1,
        "ontology": [
          "xsd:integer"
        ]
      }
    },
    {
      "id": "MinimumLength",
      "value": {
        "visible": true,
        "required": false,
        "type": "number",
        "order": 0,
        "enquote": false,
        "default": 0,
        "validator": null
      },
      "details": {
        "label": "Minimum length",
        "description": "Minimal length for filtering reads.",
        "argument": null,
        "showArgument": false,
        "repeatArgument": false
      },
      "semantics": {
        "minCardinality": 0,
        "maxCardinality": 1,
        "ontology": [
          "xsd:integer"
        ]
      }
    },
    {
      "id": "MaximumHomopolymer",
      "value": {
        "visible": true,
        "required": false,
        "type": "number",
        "order": 0,
        "enquote": false,
        "default": 0,
        "validator": null
      },
      "details": {
        "label": "Maximum homopolymer",
        "description": "Maximum homopolymer length for filtering reads.",
        "argument": null,
        "showArgument": false,
        "repeatArgument": false
      },
      "semantics": {
        "minCardinality": 0,
        "maxCardinality": 1,
        "ontology": [
          "xsd:integer"
        ]
      }
    },
    {
      "id": "PostFilterStatisticsFlag",
      "value": {
        "visible": true,
        "required": false,
        "type": "bool",
        "order": 0,
        "enquote": false,
        "default": false,
        "validator": null
      },
      "details": {
        "label": "Post-filter statistics",
        "description": "Specify if post-filter statistics are to be generated.",
        "argument": null,
        "showArgument": false,
        "repeatArgument": false
      },
      "semantics": {
        "minCardinality": 0,
        "maxCardinality": 1,
        "ontology": [
          "xsd:boolean"
        ]
      }
    },
    {
      "id": "Barcode",
      "value": {
        "visible": true,
        "required": false,
        "type": "bool",
        "order": 0,
        "enquote": false,
        "default": false,
        "validator": null
      },
      "details": {
        "label": "Barcode",
        "description": "Barcode matching.",
        "argument": null,
        "showArgument": false,
        "repeatArgument": false
      },
      "semantics": {
        "minCardinality": 1,
        "maxCardinality": 1,
        "ontology": [
          "xsd:string"
        ]
      }
    },
    {
      "id": "BarcodeLocation",
      "value": {
        "visible": true,
        "required": false,
        "type": "enumeration",
        "order": 0,
        "enquote": false,
        "default": null,
        "enum_values": [
          {
            "forward": "forward"
          },
          {
            "reverse": "reverse"
          }
        ]
      },
      "details": {
        "label": "Barcode location",
        "description": "Specify if barcode on forward or reverse",
        "argument": null,
        "showArgument": false,
        "repeatArgument": false
      },
      "semantics": {
        "minCardinality": 1,
        "maxCardinality": 1,
        "ontology": [
          "xsd:string"
        ]
      }
    },
    {
      "id": "BarcodeDiscard",
      "value": {
        "visible": true,
        "required": false,
        "type": "bool",
        "order": 0,
        "enquote": false,
        "default": true,
        "validator": null
      },
      "details": {
        "label": "Barcode discard reads",
        "description": "Specify if reads should be discarded if not barcode match.",
        "argument": null,
        "showArgument": false,
        "repeatArgument": false
      },
      "semantics": {
        "minCardinality": 0,
        "maxCardinality": 1,
        "ontology": [
          "xsd:boolean"
        ]
      }
    },
    {
      "id": "BarcodeGenerateHistogram",
      "value": {
        "visible": true,
        "required": false,
        "type": "bool",
        "order": 0,
        "enquote": false,
        "default": true,
        "validator": null
      },
      "details": {
        "label": "Barcode generate histogram",
        "description": "",
        "argument": null,
        "showArgument": false,
        "repeatArgument": false
      },
      "semantics": {
        "minCardinality": 0,
        "maxCardinality": 1,
        "ontology": [
          "xsd:boolean"
        ]
      }
    },
    {
      "id": "BarcodeMaximumMismatches",
      "value": {
        "visible": true,
        "required": false,
        "type": "number",
        "order": 0,
        "enquote": false,
        "default": 0,
        "validator": null
      },
      "details": {
        "label": "Barcode maximum mismatches",
        "description": "",
        "argument": null,
        "showArgument": false,
        "repeatArgument": false
      },
      "semantics": {
        "minCardinality": 0,
        "maxCardinality": 1,
        "ontology": [
          "xsd:integer"
        ]
      }
    },
    {
      "id": "BarcodeTrim",
      "value": {
        "visible": true,
        "required": false,
        "type": "bool",
        "order": 0,
        "enquote": false,
        "default": true,
        "validator": null
      },
      "details": {
        "label": "Barcode trim",
        "description": "",
        "argument": null,
        "showArgument": false,
        "repeatArgument": false
      },
      "semantics": {
        "minCardinality": 0,
        "maxCardinality": 1,
        "ontology": [
          "xsd:boolean"
        ]
      }
    },
    {
      "id": "BarcodeSearchWindow",
      "value": {
        "visible": true,
        "required": false,
        "type": "number",
        "order": 0,
        "enquote": false,
        "default": 0,
        "validator": null
      },
      "details": {
        "label": "Barcode search window",
        "description": "",
        "argument": null,
        "showArgument": false,
        "repeatArgument": false
      },
      "semantics": {
        "minCardinality": 0,
        "maxCardinality": 1,
        "ontology": [
          "xsd:integer"
        ]
      }
    },
    {
      "id": "BarcodeSplitFlag",
      "value": {
        "visible": true,
        "required": false,
        "type": "bool",
        "order": 0,
        "enquote": false,
        "default": true,
        "validator": null
      },
      "details": {
        "label": "Barcode split files",
        "description": "Specify if reads should be split into files.",
        "argument": null,
        "showArgument": false,
        "repeatArgument": false
      },
      "semantics": {
        "minCardinality": 0,
        "maxCardinality": 1,
        "ontology": [
          "xsd:boolean"
        ]
      }
    },
    {
      "id": "ForwardPrimer",
      "value": {
        "visible": true,
        "required": false,
        "type": "bool",
        "order": 0,
        "enquote": false,
        "default": false,
        "validator": null
      },
      "details": {
        "label": "Forward Primer",
        "description": "Specify if forward primer matching is to be performed.",
        "argument": null,
        "showArgument": false,
        "repeatArgument": false
      },
      "semantics": {
        "minCardinality": 0,
        "maxCardinality": 1,
        "ontology": [
          "xsd:boolean"
        ]
      }
    },
    {
      "id": "ForwardPrimerMaximumMismatches",
      "value": {
        "visible": true,
        "required": false,
        "type": "number",
        "order": 0,
        "enquote": false,
        "default": 0,
        "validator": null
      },
      "details": {
        "label": "Forward primer maximum mismatches",
        "description": "",
        "argument": null,
        "showArgument": false,
        "repeatArgument": false
      },
      "semantics": {
        "minCardinality": 0,
        "maxCardinality": 1,
        "ontology": [
          "xsd:integer"
        ]
      }
    },
    {
      "id": "ForwardPrimerTrim",
      "value": {
        "visible": true,
        "required": false,
        "type": "bool",
        "order": 0,
        "enquote": false,
        "default": true,
        "validator": null
      },
      "details": {
        "label": "Forward primer trim",
        "description": "",
        "argument": null,
        "showArgument": false,
        "repeatArgument": false
      },
      "semantics": {
        "minCardinality": 0,
        "maxCardinality": 1,
        "ontology": [
          "xsd:boolean"
        ]
      }
    },
    {
      "id": "ForwardPrimerSearchWindow",
      "value": {
        "visible": true,
        "required": false,
        "type": "number",
        "order": 0,
        "enquote": false,
        "default": 0,
        "validator": null
      },
      "details": {
        "label": "Forward primer search window",
        "description": "",
        "argument": null,
        "showArgument": false,
        "repeatArgument": false
      },
      "semantics": {
        "minCardinality": 0,
        "maxCardinality": 1,
        "ontology": [
          "xsd:integer"
        ]
      }
    },
    {
      "id": "ReversePrimer",
      "value": {
        "visible": true,
        "required": false,
        "type": "bool",
        "order": 0,
        "enquote": false,
        "default": false,
        "validator": null
      },
      "details": {
        "label": "Reverse Primer",
        "description": "Specify if reverse primer matching is to be performed.",
        "argument": null,
        "showArgument": false,
        "repeatArgument": false
      },
      "semantics": {
        "minCardinality": 0,
        "maxCardinality": 1,
        "ontology": [
          "xsd:boolean"
        ]
      }
    },
    {
      "id": "ReversePrimerMaximumMismatches",
      "value": {
        "visible": true,
        "required": false,
        "type": "number",
        "order": 0,
        "enquote": false,
        "default": 0,
        "validator": null
      },
      "details": {
        "label": "Reverse primer maximum mismatches",
        "description": "",
        "argument": null,
        "showArgument": false,
        "repeatArgument": false
      },
      "semantics": {
        "minCardinality": 0,
        "maxCardinality": 1,
        "ontology": [
          "xsd:integer"
        ]
      }
    },
    {
      "id": "ReversePrimerTrim",
      "value": {
        "visible": true,
        "required": false,
        "type": "bool",
        "order": 0,
        "enquote": false,
        "default": true,
        "validator": null
      },
      "details": {
        "label": "Reverse primer trim",
        "description": "",
        "argument": null,
        "showArgument": false,
        "repeatArgument": false
      },
      "semantics": {
        "minCardinality": 0,
        "maxCardinality": 1,
        "ontology": [
          "xsd:boolean"
        ]
      }
    },
    {
      "id": "ReversePrimerSearchWindow",
      "value": {
        "visible": true,
        "required": false,
        "type": "number",
        "order": 0,
        "enquote": false,
        "default": 0,
        "validator": null
      },
      "details": {
        "label": "Reverse primer search window",
        "description": "",
        "argument": null,
        "showArgument": false,
        "repeatArgument": false
      },
      "semantics": {
        "minCardinality": 0,
        "maxCardinality": 1,
        "ontology": [
          "xsd:integer"
        ]
      }
    },
    {
      "id": "FindUniqueFlag",
      "value": {
        "visible": true,
        "required": false,
        "type": "bool",
        "order": 0,
        "enquote": false,
        "default": false,
        "validator": null
      },
      "details": {
        "label": "Find unique reads",
        "description": "Specify if find unique reads is to be performed.",
        "argument": null,
        "showArgument": false,
        "repeatArgument": false
      },
      "semantics": {
        "minCardinality": 0,
        "maxCardinality": 1,
        "ontology": [
          "xsd:boolean"
        ]
      }
    }
  ]
}
